module modernc.org/sqlite

go 1.15

require (
	github.com/mattn/go-sqlite3 v1.14.6
	modernc.org/ccgo/v3 v3.9.4
	modernc.org/libc v1.9.5
	modernc.org/mathutil v1.2.2
	modernc.org/tcl v1.5.2
	modernc.org/z v1.0.1
)
